<?xml version="1.0" encoding="UTF-8"?>
<svg width="25px" height="25px" viewBox="0 0 25 25" version="1.1" xmlns="http://www.w3.org/2000/svg" xmlns:xlink="http://www.w3.org/1999/xlink">
    <title>Profile@1x</title>
    <g id="Page-1" stroke="none" stroke-width="1" fill="none" fill-rule="evenodd">
        <g id="Settings" transform="translate(-20.000000, -267.000000)">
            <g id="Profile" transform="translate(20.000000, 267.000000)">
                <rect id="Rectangle" x="0" y="0" width="25" height="25"></rect>
                <g transform="translate(6.000000, 5.000000)" stroke="#4BB4F0" stroke-linecap="round" stroke-linejoin="round" stroke-width="1.5">
                    <circle id="Ellipse_736" cx="6.06317087" cy="3.82242565" r="3.82242565"></circle>
                    <path d="M4.26325641e-15,12.9610985 C-0.00101408446,12.6923865 0.0590825387,12.4269597 0.175756653,12.1848971 C0.541889378,11.4526316 1.57438366,11.0645309 2.43113424,10.8887872 C3.04902196,10.7569297 3.67544432,10.668839 4.30573379,10.6251717 C5.47267089,10.5226662 6.64634819,10.5226662 7.8132853,10.6251717 C8.44352196,10.6693419 9.0699092,10.7574276 9.68788485,10.8887872 C10.5446354,11.0645309 11.5771297,11.4160184 11.9432624,12.1848971 C12.177898,12.6783327 12.177898,13.2511869 11.9432624,13.7446225 C11.5771297,14.5135012 10.5446354,14.8649886 9.68788485,15.0334097 C9.07071949,15.1707279 8.4440753,15.2612975 7.8132853,15.3043479 C6.86349403,15.3848649 5.90926867,15.3995453 4.95745004,15.3482838 C4.73777041,15.3482838 4.52541343,15.3482838 4.30573379,15.3043479 C3.67730509,15.261828 3.05305472,15.1712505 2.43845689,15.0334097 C1.57438366,14.8649886 0.549212033,14.5135012 0.175756653,13.7446225 C0.0596786067,13.4997526 -0.000358358375,13.2320878 4.26325641e-15,12.9610985 Z" id="Path_33945"></path>
                </g>
            </g>
        </g>
    </g>
</svg>